[
    {
        "id": 9342086,
        "name": "Asgar"
    },
    {
        "id": 654456,
        "name": "Ahamd"
    },
    {
        "id": 45643465,
        "name": "Akbar"
    },
    {
        "id": 4365456,
        "name": "Abraham"
    },
    {
        "id": 465465,
        "name": "Alex"
    }
]